%YAML 1.1
%TAG !u! tag:unity3d.com,2011:
--- !u!1001 &100100000
Prefab:
  m_ObjectHideFlags: 1
  serializedVersion: 2
  m_Modification:
    m_TransformParent: {fileID: 0}
    m_Modifications: []
    m_RemovedComponents: []
  m_ParentPrefab: {fileID: 0}
  m_RootGameObject: {fileID: 1891383715632734}
  m_IsPrefabParent: 1
--- !u!1 &1891383715632734
GameObject:
  m_ObjectHideFlags: 0
  m_PrefabParentObject: {fileID: 0}
  m_PrefabInternal: {fileID: 100100000}
  serializedVersion: 5
  m_Component:
  - component: {fileID: 4345110513093396}
  - component: {fileID: 114911322508193306}
  m_Layer: 0
  m_Name: ActionDeck
  m_TagString: Untagged
  m_Icon: {fileID: 0}
  m_NavMeshLayer: 0
  m_StaticEditorFlags: 0
  m_IsActive: 1
--- !u!4 &4345110513093396
Transform:
  m_ObjectHideFlags: 1
  m_PrefabParentObject: {fileID: 0}
  m_PrefabInternal: {fileID: 100100000}
  m_GameObject: {fileID: 1891383715632734}
  m_LocalRotation: {x: 0, y: 0, z: 0, w: 1}
  m_LocalPosition: {x: 4.7499924, y: -1.3363332, z: 0}
  m_LocalScale: {x: 1, y: 1, z: 1}
  m_Children: []
  m_Father: {fileID: 0}
  m_RootOrder: 0
  m_LocalEulerAnglesHint: {x: 0, y: 0, z: 0}
--- !u!114 &114911322508193306
MonoBehaviour:
  m_ObjectHideFlags: 1
  m_PrefabParentObject: {fileID: 0}
  m_PrefabInternal: {fileID: 100100000}
  m_GameObject: {fileID: 1891383715632734}
  m_Enabled: 1
  m_EditorHideFlags: 0
  m_Script: {fileID: 11500000, guid: f154a17ba279f82469d102e80aa2f000, type: 3}
  m_Name: 
  m_EditorClassIdentifier: 
  fullDeck:
  - actionToPerform: 7
    minLevelReq: 0
    icon: {fileID: 21300000, guid: 50a69c52dd893e148ac060432f665914, type: 3}
    temp: {fileID: 0}
  - actionToPerform: 1
    minLevelReq: 0
    icon: {fileID: 21300000, guid: 70cb64aa589aa6e45b4162d0e1360f17, type: 3}
    temp: {fileID: 0}
  - actionToPerform: 2
    minLevelReq: 1
    icon: {fileID: 21300000, guid: 00e497f9ae95f1246aec4f07f83c9c0f, type: 3}
    temp: {fileID: 0}
  - actionToPerform: 3
    minLevelReq: 1
    icon: {fileID: 21300000, guid: 256860a140c864c4892f2e213b7bffce, type: 3}
    temp: {fileID: 0}
  - actionToPerform: 4
    minLevelReq: 0
    icon: {fileID: 21300000, guid: aa31174e517ee044aaacceba1924d0cb, type: 3}
    temp: {fileID: 0}
  - actionToPerform: 5
    minLevelReq: 1
    icon: {fileID: 21300000, guid: 0b8286ff96a16174f9abc76ab8e29ce7, type: 3}
    temp: {fileID: 0}
  - actionToPerform: 6
    minLevelReq: 1
    icon: {fileID: 21300000, guid: 2cf1eba38996dad47a4556f2b8c3e7dd, type: 3}
    temp: {fileID: 0}
  - actionToPerform: 7
    minLevelReq: 0
    icon: {fileID: 21300000, guid: 50a69c52dd893e148ac060432f665914, type: 3}
    temp: {fileID: 0}
  - actionToPerform: 7
    minLevelReq: 0
    icon: {fileID: 21300000, guid: 50a69c52dd893e148ac060432f665914, type: 3}
    temp: {fileID: 0}
  - actionToPerform: 7
    minLevelReq: 0
    icon: {fileID: 21300000, guid: 50a69c52dd893e148ac060432f665914, type: 3}
    temp: {fileID: 0}
  - actionToPerform: 7
    minLevelReq: 0
    icon: {fileID: 21300000, guid: 50a69c52dd893e148ac060432f665914, type: 3}
    temp: {fileID: 0}
  - actionToPerform: 7
    minLevelReq: 0
    icon: {fileID: 21300000, guid: 50a69c52dd893e148ac060432f665914, type: 3}
    temp: {fileID: 0}
  - actionToPerform: 7
    minLevelReq: 0
    icon: {fileID: 21300000, guid: 50a69c52dd893e148ac060432f665914, type: 3}
    temp: {fileID: 0}
  - actionToPerform: 7
    minLevelReq: 0
    icon: {fileID: 21300000, guid: 50a69c52dd893e148ac060432f665914, type: 3}
    temp: {fileID: 0}
  - actionToPerform: 7
    minLevelReq: 0
    icon: {fileID: 21300000, guid: 50a69c52dd893e148ac060432f665914, type: 3}
    temp: {fileID: 0}
  currentDeck: []
